wave.vcd
$date
	Fri Aug 11 10:35:10 2023
$end
$version
	Icarus Verilog
$end
$timescale
	1ps
$end
$scope module sccomp_tb $end
$scope module xgriscv $end
$scope module U_SCPU $end
$var wire 32 ! Addr_out [31:0] $end
$var wire 1 " CPU_MIO $end
$var wire 32 # Data_out [31:0] $end
$var wire 1 $ INT $end
$var wire 1 % MIO_ready $end
$var wire 32 & PC_out [31:0] $end
$var wire 1 ' clk $end
$var wire 3 ( dm_ctrl [2:0] $end
$var wire 1 ) mem_w $end
$var wire 1 * reset $end
$var wire 1 + wea $end
$var wire 1 , stall $end
$var wire 5 - rs2 [4:0] $end
$var wire 5 . rs1 [4:0] $end
$var wire 32 / inst_in [31:0] $end
$var wire 1 0 flush $end
$var wire 32 1 RD2 [31:0] $end
$var wire 32 2 RD1 [31:0] $end
$var wire 32 3 PC [31:0] $end
$var wire 5 4 MEM_WB_rd [4:0] $end
$var wire 32 5 MEM_WB_WD [31:0] $end
$var wire 1 6 MEM_WB_RegWrite $end
$var wire 32 7 MEM_WB_Forward_Data [31:0] $end
$var wire 32 8 MEM_NPC [31:0] $end
$var wire 32 9 IF_ID_inst [31:0] $end
$var wire 32 : IF_ID_PC [31:0] $end
$var wire 5 ; ID_EX_rd [4:0] $end
$var wire 32 < ID_EX_immout [31:0] $end
$var wire 3 = ID_EX_dm_ctrl [2:0] $end
$var wire 2 > ID_EX_WDSel [1:0] $end
$var wire 1 ? ID_EX_RegWrite $end
$var wire 32 @ ID_EX_PC [31:0] $end
$var wire 3 A ID_EX_NPCOp [2:0] $end
$var wire 1 B ID_EX_MemWrite $end
$var wire 32 C ID_EX_DataWrite [31:0] $end
$var wire 32 D ID_EX_ALU_B [31:0] $end
$var wire 32 E ID_EX_ALU_A [31:0] $end
$var wire 5 F ID_EX_ALUOp [4:0] $end
$var wire 4 G EX_MEM_wea [3:0] $end
$var wire 5 H EX_MEM_rd [4:0] $end
$var wire 32 I EX_MEM_immout [31:0] $end
$var wire 3 J EX_MEM_dm_ctrl [2:0] $end
$var wire 32 K EX_MEM_aluout [31:0] $end
$var wire 2 L EX_MEM_WDSel [1:0] $end
$var wire 32 M EX_MEM_WD [31:0] $end
$var wire 1 N EX_MEM_RegWrite $end
$var wire 32 O EX_MEM_PC [31:0] $end
$var wire 3 P EX_MEM_NPCOp [2:0] $end
$var wire 1 Q EX_MEM_MemWrite $end
$var wire 32 R EX_MEM_Forward_Data [31:0] $end
$var wire 32 S EX_MEM_DataWrite [31:0] $end
$var wire 32 T Data_in [31:0] $end
$scope module U_EX $end
$var wire 32 U EX_MEM_Forward_Data [31:0] $end
$var wire 1 ' clk $end
$var wire 1 V flush_w $end
$var wire 1 * rst $end
$var wire 5 W rd_in [4:0] $end
$var wire 32 X raw_Data_out [31:0] $end
$var wire 32 Y immout_in [31:0] $end
$var wire 3 Z dm_ctrl_in [2:0] $end
$var wire 32 [ aluout_w [31:0] $end
$var wire 1 \ Zero $end
$var wire 32 ] WD_w [31:0] $end
$var wire 2 ^ WDSel_in [1:0] $end
$var wire 1 ? RegWrite_in $end
$var wire 32 _ PC_in [31:0] $end
$var wire 3 ` NPCOp_in [2:0] $end
$var wire 1 B MemWrite_in $end
$var wire 32 a ALU_B [31:0] $end
$var wire 32 b ALU_A [31:0] $end
$var wire 5 c ALUOp [4:0] $end
$var reg 1 Q MemWrite $end
$var reg 3 d NPCOp [2:0] $end
$var reg 32 e PC [31:0] $end
$var reg 1 N RegWrite $end
$var reg 32 f WD [31:0] $end
$var reg 2 g WDSel [1:0] $end
$var reg 32 h aluout [31:0] $end
$var reg 32 i dm_Data_out [31:0] $end
$var reg 3 j dm_ctrl [2:0] $end
$var reg 1 0 flush $end
$var reg 32 k immout [31:0] $end
$var reg 5 l rd [4:0] $end
$var reg 4 m wea [3:0] $end
$var reg 4 n wea_tmp [3:0] $end
$scope module U_alu $end
$var wire 32 o PC [31:0] $end
$var wire 1 \ Zero $end
$var wire 32 p B [31:0] $end
$var wire 5 q ALUOp [4:0] $end
$var wire 32 r A [31:0] $end
$var reg 32 s C [31:0] $end
$upscope $end
$upscope $end
$scope module U_ID $end
$var wire 1 t DataHazardA1 $end
$var wire 1 u DataHazardA2 $end
$var wire 1 v DataHazardB1 $end
$var wire 1 w DataHazardB2 $end
$var wire 32 x EX_MEM_Forward_Data [31:0] $end
$var wire 1 N EX_MEM_RegWrite $end
$var wire 5 y EX_MEM_rd [4:0] $end
$var wire 1 z ForwardA1 $end
$var wire 1 { ForwardA2 $end
$var wire 1 | ForwardB1 $end
$var wire 1 } ForwardB2 $end
$var wire 2 ~ GPRSel [1:0] $end
$var wire 1 !" Rs1Legal $end
$var wire 1 "" Rs2Legal $end
$var wire 1 ' clk $end
$var wire 1 0 flush $end
$var wire 1 * rst $end
$var wire 1 , stall $end
$var wire 1 #" use_rs2 $end
$var wire 1 $" use_rs1 $end
$var wire 20 %" uimm [19:0] $end
$var wire 1 &" type_l $end
$var wire 12 '" simm [11:0] $end
$var wire 5 (" rs2 [4:0] $end
$var wire 5 )" rs1 [4:0] $end
$var wire 5 *" rd_w [4:0] $end
$var wire 20 +" jimm [19:0] $end
$var wire 32 ," inst_in [31:0] $end
$var wire 32 -" immout_w [31:0] $end
$var wire 5 ." iimm_shamt [4:0] $end
$var wire 12 /" iimm [11:0] $end
$var wire 3 0" dm_ctrl_w [2:0] $end
$var wire 12 1" bimm [11:0] $end
$var wire 2 2" WDSel_w [1:0] $end
$var wire 1 3" RegWrite_w $end
$var wire 32 4" RD2 [31:0] $end
$var wire 32 5" RD1 [31:0] $end
$var wire 32 6" PC_in [31:0] $end
$var wire 7 7" Op [6:0] $end
$var wire 32 8" NewRD2 [31:0] $end
$var wire 32 9" NewRD1 [31:0] $end
$var wire 3 :" NPCOp_w [2:0] $end
$var wire 1 ;" MemWrite_w $end
$var wire 32 <" MEM_WB_Forward_Data [31:0] $end
$var wire 5 =" ID_EX_rd [4:0] $end
$var wire 2 >" ID_EX_WDSel [1:0] $end
$var wire 1 ? ID_EX_RegWrite $end
$var wire 7 ?" Funct7 [6:0] $end
$var wire 3 @" Funct3 [2:0] $end
$var wire 6 A" EXTOp [5:0] $end
$var wire 1 B" ALUSrc $end
$var wire 5 C" ALUOp_w [4:0] $end
$var reg 5 D" ALUOp [4:0] $end
$var reg 32 E" ALU_A [31:0] $end
$var reg 32 F" ALU_B [31:0] $end
$var reg 32 G" DataWrite [31:0] $end
$var reg 1 B MemWrite $end
$var reg 3 H" NPCOp [2:0] $end
$var reg 32 I" PC [31:0] $end
$var reg 1 ? RegWrite $end
$var reg 2 J" WDSel [1:0] $end
$var reg 3 K" dm_ctrl [2:0] $end
$var reg 32 L" immout [31:0] $end
$var reg 5 M" rd [4:0] $end
$scope module U_EXT $end
$var wire 12 N" bimm [11:0] $end
$var wire 12 O" iimm [11:0] $end
$var wire 5 P" iimm_shamt [4:0] $end
$var wire 20 Q" jimm [19:0] $end
$var wire 12 R" simm [11:0] $end
$var wire 20 S" uimm [19:0] $end
$var wire 6 T" EXTOp [5:0] $end
$var reg 32 U" immout [31:0] $end
$upscope $end
$scope module U_ctrl $end
$var wire 1 B" ALUSrc $end
$var wire 3 V" Funct3 [2:0] $end
$var wire 7 W" Funct7 [6:0] $end
$var wire 2 X" GPRSel [1:0] $end
$var wire 1 ;" MemWrite $end
$var wire 7 Y" Op [6:0] $end
$var wire 1 3" RegWrite $end
$var wire 1 Z" i_add $end
$var wire 1 [" i_addi $end
$var wire 1 \" i_and $end
$var wire 1 ]" i_andi $end
$var wire 1 ^" i_auipc $end
$var wire 1 _" i_beq $end
$var wire 1 `" i_bge $end
$var wire 1 a" i_bgeu $end
$var wire 1 b" i_blt $end
$var wire 1 c" i_bltu $end
$var wire 1 d" i_bne $end
$var wire 1 e" i_jal $end
$var wire 1 f" i_jalr $end
$var wire 1 g" i_lb $end
$var wire 1 h" i_lbu $end
$var wire 1 i" i_lh $end
$var wire 1 j" i_lhu $end
$var wire 1 k" i_lui $end
$var wire 1 l" i_lw $end
$var wire 1 m" i_or $end
$var wire 1 n" i_ori $end
$var wire 1 o" i_sb $end
$var wire 1 p" i_sh $end
$var wire 1 q" i_sll $end
$var wire 1 r" i_slli $end
$var wire 1 s" i_slt $end
$var wire 1 t" i_slti $end
$var wire 1 u" i_sltiu $end
$var wire 1 v" i_sltu $end
$var wire 1 w" i_sra $end
$var wire 1 x" i_srai $end
$var wire 1 y" i_srl $end
$var wire 1 z" i_srli $end
$var wire 1 {" i_sub $end
$var wire 1 |" i_sw $end
$var wire 1 }" i_xor $end
$var wire 1 ~" i_xori $end
$var wire 1 !# itype_l $end
$var wire 1 "# itype_r $end
$var wire 1 ## rtype $end
$var wire 1 $# sbtype $end
$var wire 1 %# stype $end
$var wire 1 $" use_rs1 $end
$var wire 1 #" use_rs2 $end
$var wire 3 &# dm_ctrl [2:0] $end
$var wire 2 '# WDSel [1:0] $end
$var wire 3 (# NPCOp [2:0] $end
$var wire 6 )# EXTOp [5:0] $end
$var wire 5 *# ALUOp [4:0] $end
$upscope $end
$upscope $end
$scope module U_IF $end
$var wire 1 ' clk $end
$var wire 1 0 flush $end
$var wire 1 * rst $end
$var wire 1 , stall $end
$var wire 32 +# inst_in [31:0] $end
$var wire 32 ,# PC_in [31:0] $end
$var reg 32 -# PC_out [31:0] $end
$var reg 32 .# inst_out [31:0] $end
$upscope $end
$scope module U_MEM $end
$var wire 32 /# MEM_WB_Forward_Data [31:0] $end
$var wire 1 6 RegWrite $end
$var wire 1 N RegWrite_in $end
$var wire 32 0# WD [31:0] $end
$var wire 2 1# WDSel_in [1:0] $end
$var wire 32 2# WD_in [31:0] $end
$var wire 2 3# bias [1:0] $end
$var wire 1 ' clk $end
$var wire 3 4# dm_ctrl [2:0] $end
$var wire 5 5# rd [4:0] $end
$var wire 5 6# rd_in [4:0] $end
$var wire 1 * rst $end
$var wire 32 7# raw_Data_in [31:0] $end
$var reg 32 8# Data_in [31:0] $end
$var reg 32 9# WD_w [31:0] $end
$upscope $end
$scope module U_NPC $end
$var wire 32 :# IMM [31:0] $end
$var wire 3 ;# NPCOp [2:0] $end
$var wire 32 <# PC [31:0] $end
$var wire 32 =# aluout [31:0] $end
$var reg 32 ># NPC [31:0] $end
$upscope $end
$scope module U_PC $end
$var wire 32 ?# NPC [31:0] $end
$var wire 3 @# NPCOP [2:0] $end
$var wire 1 ' clk $end
$var wire 1 * rst $end
$var wire 1 , stall $end
$var wire 32 A# PCPLUS4 [31:0] $end
$var reg 32 B# PC [31:0] $end
$upscope $end
$scope module U_RF $end
$var wire 5 C# A1 [4:0] $end
$var wire 5 D# A2 [4:0] $end
$var wire 5 E# A3 [4:0] $end
$var wire 32 F# PC [31:0] $end
$var wire 32 G# RD1 [31:0] $end
$var wire 32 H# RD2 [31:0] $end
$var wire 1 6 RFWr $end
$var wire 32 I# WD [31:0] $end
$var wire 1 ' clk $end
$var wire 1 * rst $end
$var integer 32 J# i [31:0] $end
$upscope $end
$upscope $end
$upscope $end
$upscope $end
$enddefinitions $end
$comment Show the parameter values. $end
$dumpall
$end
#0
$dumpvars
b100000 J#
b0 I#
b0 H#
b0 G#
b0 F#
b0 E#
b0 D#
b0 C#
b0 B#
b100 A#
b0 @#
bx ?#
bx >#
b0 =#
b0 <#
b0 ;#
b0 :#
b0 9#
bx 8#
bx 7#
b0 6#
b0 5#
b0 4#
b0 3#
b0 2#
b0 1#
b0 0#
b0 /#
b0 .#
b0 -#
b0 ,#
b100011010000000110001010010011 +#
b0 *#
b0 )#
b0 (#
b0 '#
b0 &#
0%#
0$#
0##
0"#
0!#
0~"
0}"
0|"
0{"
0z"
0y"
0x"
0w"
0v"
0u"
0t"
0s"
0r"
0q"
0p"
0o"
0n"
0m"
0l"
0k"
0j"
0i"
0h"
0g"
0f"
0e"
0d"
0c"
0b"
0a"
0`"
0_"
0^"
0]"
0\"
0["
0Z"
b0 Y"
bz X"
b0 W"
b0 V"
b0 U"
b0 T"
b0 S"
b0 R"
b0 Q"
b0 P"
b0 O"
b0 N"
b0 M"
b0 L"
b0 K"
b0 J"
b0 I"
b0 H"
bx G"
b0 F"
b0 E"
b0 D"
b0 C"
0B"
b0 A"
b0 @"
b0 ?"
b0 >"
b0 ="
b0 <"
0;"
b0 :"
b0 9"
b0 8"
b0 7"
b0 6"
b0 5"
b0 4"
03"
b0 2"
b0 1"
b0 0"
b0 /"
b0 ."
b0 -"
b0 ,"
b0 +"
b0 *"
b0 )"
b0 ("
b0 '"
0&"
b0 %"
0$"
0#"
0""
0!"
bz ~
0}
0|
0{
0z
b0 y
b0 x
0w
0v
0u
0t
b0 s
b0 r
b0 q
b0 p
b0 o
b0 n
b0 m
b0 l
b0 k
b0 j
b0 i
b0 h
b0 g
b0 f
b0 e
b0 d
b0 c
b0 b
b0 a
b0 `
b0 _
b0 ^
b0 ]
1\
b0 [
b0 Z
b0 Y
bx X
b0 W
0V
b0 U
bx T
b0 S
b0 R
0Q
b0 P
b0 O
0N
b0 M
b0 L
b0 K
b0 J
b0 I
b0 H
b0 G
b0 F
b0 E
b0 D
bx C
0B
b0 A
b0 @
0?
b0 >
b0 =
b0 <
b0 ;
b0 :
b0 9
bx 8
b0 7
06
b0 5
b0 4
b0 3
b0 2
b0 1
00
b100011010000000110001010010011 /
b0 .
b0 -
0,
0+
1*
0)
b0 (
1'
b0 &
z%
z$
b0 #
z"
b0 !
$end
#5000
0*
#50000
0'
#100000
b1000110100 -"
b1000110100 U"
b10000 A"
b10000 T"
b10000 )#
b1101 C"
b1101 *#
1n"
1$"
1"#
13"
1B"
b0 2"
b0 '#
0!#
b101 *"
b10100 -
b10100 ("
b10100 D#
b110 @"
b110 V"
b10001 ?"
b10001 W"
b10011 7"
b10011 Y"
b11000100011010 +"
b11000100011010 Q"
b100011010000000110 %"
b100011010000000110 S"
b10100010010 1"
b10100010010 N"
b1000100101 '"
b1000100101 R"
b1000110100 /"
b1000110100 O"
b10100 ."
b10100 P"
b1001100110111 /
b1001100110111 +#
bx #
bx S
bx i
b0 C
b0 X
b0 G"
b100011010000000110001010010011 9
b100011010000000110001010010011 ,"
b100011010000000110001010010011 .#
b1000 A#
b100 &
b100 3
b100 ,#
b100 B#
b100 F#
1'
#150000
0'
#200000
b1000000000000 -"
b1000000000000 U"
b1 C"
b1 *#
0$"
1k"
0r"
0"#
b10 A"
b10 T"
b10 )#
0^"
0n"
0]"
b1000110100 R
b1000110100 U
b1000110100 x
b1000110100 ]
b11000101110001010110011 /
b11000101110001010110011 +#
b110 *"
b0 -
b0 ("
b0 D#
b1 @"
b1 V"
b0 ?"
b0 W"
b110111 7"
b110111 Y"
b100000000000 +"
b100000000000 Q"
b1 %"
b1 S"
b11 1"
b11 N"
b110 '"
b110 R"
b0 /"
b0 O"
b0 ."
b0 P"
0\
b1000110100 [
b1000110100 s
b1100 A#
b1000 &
b1000 3
b1000 ,#
b1000 B#
b1000 F#
b1001100110111 9
b1001100110111 ,"
b1001100110111 .#
b100 :
b100 6"
b100 -#
b101 ;
b101 W
b101 ="
b101 M"
1?
b1000110100 <
b1000110100 Y
b1000110100 L"
b1101 F
b1101 c
b1101 q
b1101 D"
b1000110100 D
b1000110100 a
b1000110100 p
b1000110100 F"
b0 #
b0 S
b0 i
1'
#250000
0'
#300000
b1000110100 9"
b0 -"
b0 U"
b1000110100 5
b1000110100 0#
b1000110100 I#
b1000110100 7
b1000110100 <"
b1000110100 /#
b1000110100 9#
1m"
b1101 C"
b1101 *#
1|
1v
b1000000000000 8"
1!"
1{
1$"
1u
1""
1#"
13"
0B"
1##
b0 A"
b0 T"
b0 )#
0k"
b1000000000000 R
b1000000000000 U
b1000000000000 x
b1000000000000 ]
b1000000000000 [
b1000000000000 s
b101 *"
b110 -
b110 ("
b110 D#
b101 .
b101 )"
b101 C#
b110 @"
b110 V"
b110011 7"
b110011 Y"
b10111000000000011 +"
b10111000000000011 Q"
b11000101110 %"
b11000101110 S"
b10000000010 1"
b10000000010 N"
b101 '"
b101 R"
b110 /"
b110 O"
b110 ."
b110 P"
b10011000011101100101001100110111 /
b10011000011101100101001100110111 +#
b1000110100 M
b1000110100 f
b1000110100 2#
b101 4
b101 5#
b101 E#
b101 H
b101 l
b101 y
b101 6#
16
1N
b1000110100 !
b1000110100 K
b1000110100 h
b1000110100 =#
b1000110100 I
b1000110100 k
b1000110100 :#
b110 ;
b110 W
b110 ="
b110 M"
b1000000000000 <
b1000000000000 Y
b1000000000000 L"
b100 @
b100 _
b100 I"
b1 F
b1 c
b1 q
b1 D"
b1000000000000 D
b1000000000000 a
b1000000000000 p
b1000000000000 F"
b11000101110001010110011 9
b11000101110001010110011 ,"
b11000101110001010110011 .#
b1000 :
b1000 6"
b1000 -#
b10000 A#
b1100 &
b1100 3
b1100 ,#
b1100 B#
b1100 F#
1'
#350000
b1000110100 2
b1000110100 5"
b1000110100 G#
0'
#400000
b10011000011101100101000000000000 -"
b10011000011101100101000000000000 U"
b1000000000000 5
b1000000000000 0#
b1000000000000 I#
b1000000000000 7
b1000000000000 <"
b1000000000000 /#
b1000000000000 9#
0!"
0$"
0""
b1 C"
b1 *#
0#"
1B"
0##
b10 A"
b10 T"
b10 )#
0y"
1k"
0m"
0\"
b0 9"
b0 8"
0z
0{
b1001000110100 R
b1001000110100 U
b1001000110100 x
b1001000110100 ]
b110100010100101000001110010011 /
b110100010100101000001110010011 +#
b110 *"
b111 -
b111 ("
b111 D#
b0 2
b0 5"
b0 G#
b1100 .
b1100 )"
b1100 C#
b101 @"
b101 V"
b1001100 ?"
b1001100 W"
b110111 7"
b110111 Y"
b10110010110011000011 +"
b10110010110011000011 Q"
b10011000011101100101 %"
b10011000011101100101 S"
b100011000011 1"
b100011000011 N"
b100110000110 '"
b100110000110 R"
b100110000111 /"
b100110000111 O"
b111 ."
b111 P"
0t
0u
0|
0v
b1001000110100 [
b1001000110100 s
b10100 A#
b10000 &
b10000 3
b10000 ,#
b10000 B#
b10000 F#
b10011000011101100101001100110111 9
b10011000011101100101001100110111 ,"
b10011000011101100101001100110111 .#
b1100 :
b1100 6"
b1100 -#
b101 ;
b101 W
b101 ="
b101 M"
b1000000000000 C
b1000000000000 X
b1000000000000 G"
b0 <
b0 Y
b0 L"
b1000 @
b1000 _
b1000 I"
b1101 F
b1101 c
b1101 q
b1101 D"
b1000110100 E
b1000110100 b
b1000110100 r
b1000110100 E"
b1000000000000 M
b1000000000000 f
b1000000000000 2#
b110 4
b110 5#
b110 E#
b110 H
b110 l
b110 y
b110 6#
b1000000000000 !
b1000000000000 K
b1000000000000 h
b1000000000000 =#
b1000000000000 I
b1000000000000 k
b1000000000000 :#
b100 O
b100 e
b100 o
b100 <#
1'
#450000
0'
#500000
b1101000101 -"
b1101000101 U"
b1001000110100 5
b1001000110100 0#
b1001000110100 I#
b1001000110100 7
b1001000110100 <"
b1001000110100 /#
b1001000110100 9#
b11 C"
b11 *#
1|
1v
1!"
1["
1$"
0}
0w
0""
1"#
0#"
13"
1B"
0##
b10000 A"
b10000 T"
b10000 )#
0k"
b1000110100 8"
b1001000110100 9"
b10011000011101100101000000000000 R
b10011000011101100101000000000000 U
b10011000011101100101000000000000 x
b10011000011101100101000000000000 ]
b10011000011101100101000000000000 [
b10011000011101100101000000000000 s
b111 *"
b1000110100 1
b1000110100 4"
b1000110100 H#
b101 -
b101 ("
b101 D#
b1000110100 2
b1000110100 5"
b1000110100 G#
b101 .
b101 )"
b101 C#
b0 @"
b0 V"
b11010 ?"
b11010 W"
b10011 7"
b10011 Y"
b10100010110100010 +"
b10100010110100010 Q"
b110100010100101000 %"
b110100010100101000 S"
b10110100011 1"
b10110100011 N"
b1101000111 '"
b1101000111 R"
b1101000101 /"
b1101000101 O"
b101 ."
b101 P"
b11000000000000110000010000010011 /
b11000000000000110000010000010011 +#
b1001000110100 M
b1001000110100 f
b1001000110100 2#
b101 4
b101 5#
b101 E#
b101 H
b101 l
b101 y
b101 6#
b1001000110100 !
b1001000110100 K
b1001000110100 h
b1001000110100 =#
b1000000000000 #
b1000000000000 S
b1000000000000 i
b0 I
b0 k
b0 :#
b1000 O
b1000 e
b1000 o
b1000 <#
b110 ;
b110 W
b110 ="
b110 M"
b0 C
b0 X
b0 G"
b10011000011101100101000000000000 <
b10011000011101100101000000000000 Y
b10011000011101100101000000000000 L"
b1100 @
b1100 _
b1100 I"
b1 F
b1 c
b1 q
b1 D"
b10011000011101100101000000000000 D
b10011000011101100101000000000000 a
b10011000011101100101000000000000 p
b10011000011101100101000000000000 F"
b0 E
b0 b
b0 r
b0 E"
b110100010100101000001110010011 9
b110100010100101000001110010011 ,"
b110100010100101000001110010011 .#
b10000 :
b10000 6"
b10000 -#
b11000 A#
b10100 &
b10100 3
b10100 ,#
b10100 B#
b10100 F#
1'
#550000
b1001000110100 8"
b1001000110100 2
b1001000110100 5"
b1001000110100 G#
b1001000110100 1
b1001000110100 4"
b1001000110100 H#
0'
#600000
b11111111111111111111110000000000 -"
b11111111111111111111110000000000 U"
b10011000011101100101000000000000 5
b10011000011101100101000000000000 0#
b10011000011101100101000000000000 I#
b10011000011101100101000000000000 7
b10011000011101100101000000000000 <"
b10011000011101100101000000000000 /#
b10011000011101100101000000000000 9#
b0 8"
b10011000011101100101000000000000 9"
b1010101111001 R
b1010101111001 U
b1010101111001 x
b1010101111001 ]
b1111011110000101100010010010011 /
b1111011110000101100010010010011 +#
b1000 *"
b0 1
b0 4"
b0 H#
b0 -
b0 ("
b0 D#
b1000000000000 2
b1000000000000 5"
b1000000000000 G#
b110 .
b110 )"
b110 C#
b1100000 ?"
b1100000 W"
b10011000001000000000 +"
b10011000001000000000 Q"
b11000000000000110000 %"
b11000000000000110000 S"
b101000000100 1"
b101000000100 N"
b110000001000 '"
b110000001000 R"
b110000000000 /"
b110000000000 O"
b0 ."
b0 P"
1|
1v
b1010101111001 [
b1010101111001 s
b11100 A#
b11000 &
b11000 3
b11000 ,#
b11000 B#
b11000 F#
b11000000000000110000010000010011 9
b11000000000000110000010000010011 ,"
b11000000000000110000010000010011 .#
b10100 :
b10100 6"
b10100 -#
b111 ;
b111 W
b111 ="
b111 M"
b1001000110100 C
b1001000110100 X
b1001000110100 G"
b1101000101 <
b1101000101 Y
b1101000101 L"
b10000 @
b10000 _
b10000 I"
b11 F
b11 c
b11 q
b11 D"
b1101000101 D
b1101000101 a
b1101000101 p
b1101000101 F"
b1001000110100 E
b1001000110100 b
b1001000110100 r
b1001000110100 E"
b10011000011101100101000000000000 M
b10011000011101100101000000000000 f
b10011000011101100101000000000000 2#
b110 4
b110 5#
b110 E#
b110 H
b110 l
b110 y
b110 6#
b10011000011101100101000000000000 !
b10011000011101100101000000000000 K
b10011000011101100101000000000000 h
b10011000011101100101000000000000 =#
b0 #
b0 S
b0 i
b10011000011101100101000000000000 I
b10011000011101100101000000000000 k
b10011000011101100101000000000000 :#
b1100 O
b1100 e
b1100 o
b1100 <#
1'
#650000
b10011000011101100101000000000000 2
b10011000011101100101000000000000 5"
b10011000011101100101000000000000 G#
0'
#700000
b11110111100 -"
b11110111100 U"
b1010101111001 5
b1010101111001 0#
b1010101111001 I#
b1010101111001 7
b1010101111001 <"
b1010101111001 /#
b1010101111001 9#
b1100 C"
b1100 *#
0["
1~"
b1001000110100 9"
b10011000011101100100110000000000 R
b10011000011101100100110000000000 U
b10011000011101100100110000000000 x
b10011000011101100100110000000000 ]
0|
0v
b1 3#
b10011000011101100100110000000000 [
b10011000011101100100110000000000 s
b1001 *"
b11100 -
b11100 ("
b11100 D#
b1001000110100 2
b1001000110100 5"
b1001000110100 G#
b101 .
b101 )"
b101 C#
b100 @"
b100 V"
b111101 ?"
b111101 W"
b10110001111011110 +"
b10110001111011110 Q"
b1111011110000101100 %"
b1111011110000101100 S"
b11111010100 1"
b11111010100 N"
b11110101001 '"
b11110101001 R"
b11110111100 /"
b11110111100 O"
b11100 ."
b11100 P"
b11010000111011000110010011 /
b11010000111011000110010011 +#
b1010101111001 M
b1010101111001 f
b1010101111001 2#
b111 4
b111 5#
b111 E#
b111 H
b111 l
b111 y
b111 6#
b1010101111001 !
b1010101111001 K
b1010101111001 h
b1010101111001 =#
b1001000110100 #
b1001000110100 S
b1001000110100 i
b1101000101 I
b1101000101 k
b1101000101 :#
b10000 O
b10000 e
b10000 o
b10000 <#
b1000 ;
b1000 W
b1000 ="
b1000 M"
b0 C
b0 X
b0 G"
b11111111111111111111110000000000 <
b11111111111111111111110000000000 Y
b11111111111111111111110000000000 L"
b10100 @
b10100 _
b10100 I"
b11111111111111111111110000000000 D
b11111111111111111111110000000000 a
b11111111111111111111110000000000 p
b11111111111111111111110000000000 F"
b10011000011101100101000000000000 E
b10011000011101100101000000000000 b
b10011000011101100101000000000000 r
b10011000011101100101000000000000 E"
b1111011110000101100010010010011 9
b1111011110000101100010010010011 ,"
b1111011110000101100010010010011 .#
b11000 :
b11000 6"
b11000 -#
b100000 A#
b11100 &
b11100 3
b11100 ,#
b11100 B#
b11100 F#
1'
#750000
0'
#800000
b110100 -"
b110100 U"
b10011000011101100100110000000000 5
b10011000011101100100110000000000 0#
b10011000011101100100110000000000 I#
b10011000011101100100110000000000 7
b10011000011101100100110000000000 <"
b10011000011101100100110000000000 /#
b10011000011101100100110000000000 9#
1u"
b10000 A"
b10000 T"
b10000 )#
b1011 C"
b1011 *#
0]"
0~"
0z"
b1010101111001 9"
b1010110001000 R
b1010110001000 U
b1010110001000 x
b1010110001000 ]
b11111111111100101011001000010011 /
b11111111111100101011001000010011 +#
b11 *"
b10100 -
b10100 ("
b10100 D#
b1010101111001 2
b1010101111001 5"
b1010101111001 G#
b111 .
b111 )"
b111 C#
b11 @"
b11 V"
b1 ?"
b1 W"
b11101100000011010 +"
b11101100000011010 Q"
b11010000111011 %"
b11010000111011 S"
b10000010001 1"
b10000010001 N"
b100011 '"
b100011 R"
b110100 /"
b110100 O"
b10100 ."
b10100 P"
b0 3#
b1010110001000 [
b1010110001000 s
b100100 A#
b100000 &
b100000 3
b100000 ,#
b100000 B#
b100000 F#
b11010000111011000110010011 9
b11010000111011000110010011 ,"
b11010000111011000110010011 .#
b11100 :
b11100 6"
b11100 -#
b1001 ;
b1001 W
b1001 ="
b1001 M"
b11110111100 <
b11110111100 Y
b11110111100 L"
b11000 @
b11000 _
b11000 I"
b1100 F
b1100 c
b1100 q
b1100 D"
b11110111100 D
b11110111100 a
b11110111100 p
b11110111100 F"
b1001000110100 E
b1001000110100 b
b1001000110100 r
b1001000110100 E"
b10011000011101100100110000000000 M
b10011000011101100100110000000000 f
b10011000011101100100110000000000 2#
b1000 4
b1000 5#
b1000 E#
b1000 H
b1000 l
b1000 y
b1000 6#
b10011000011101100100110000000000 !
b10011000011101100100110000000000 K
b10011000011101100100110000000000 h
b10011000011101100100110000000000 =#
b0 #
b0 S
b0 i
b11111111111111111111110000000000 I
b11111111111111111111110000000000 k
b11111111111111111111110000000000 :#
b10100 O
b10100 e
b10100 o
b10100 <#
1'
#850000
0'
#900000
b11111111111111111111111111111111 -"
b11111111111111111111111111111111 U"
b1010110001000 5
b1010110001000 0#
b1010110001000 I#
b1010110001000 7
b1010110001000 <"
b1010110001000 /#
b1010110001000 9#
b1001000110100 9"
b0 R
b0 U
b0 x
b0 ]
1\
b0 [
b0 s
b100 *"
b11111 -
b11111 ("
b11111 D#
b1001000110100 2
b1001000110100 5"
b1001000110100 G#
b101 .
b101 )"
b101 C#
b1111111 ?"
b1111111 W"
b10010101111111111111 +"
b10010101111111111111 Q"
b11111111111100101011 %"
b11111111111100101011 S"
b101111110010 1"
b101111110010 N"
b111111100100 '"
b111111100100 R"
b111111111111 /"
b111111111111 O"
b11111 ."
b11111 P"
b1110110010101001111100100010011 /
b1110110010101001111100100010011 +#
b1010110001000 M
b1010110001000 f
b1010110001000 2#
b1001 4
b1001 5#
b1001 E#
b1001 H
b1001 l
b1001 y
b1001 6#
b1010110001000 !
b1010110001000 K
b1010110001000 h
b1010110001000 =#
b11110111100 I
b11110111100 k
b11110111100 :#
b11000 O
b11000 e
b11000 o
b11000 <#
b11 ;
b11 W
b11 ="
b11 M"
b110100 <
b110100 Y
b110100 L"
b11100 @
b11100 _
b11100 I"
b1011 F
b1011 c
b1011 q
b1011 D"
b110100 D
b110100 a
b110100 p
b110100 F"
b1010101111001 E
b1010101111001 b
b1010101111001 r
b1010101111001 E"
b11111111111100101011001000010011 9
b11111111111100101011001000010011 ,"
b11111111111100101011001000010011 .#
b100000 :
b100000 6"
b100000 -#
b101000 A#
b100100 &
b100100 3
b100100 ,#
b100100 B#
b100100 F#
1'
#950000
0'
