wave.vcd
$date
	Tue Jul 11 18:21:48 2023
$end
$version
	Icarus Verilog
$end
$timescale
	1ps
$end
$scope module sccomp_tb $end
$scope module xgriscv $end
$scope module U_SCPU $end
$var wire 32 ! Addr_out [31:0] $end
$var wire 1 " CPU_MIO $end
$var wire 32 # Data_out [31:0] $end
$var wire 1 $ INT $end
$var wire 1 % MIO_ready $end
$var wire 32 & PC_out [31:0] $end
$var wire 1 ' clk $end
$var wire 3 ( dm_ctrl [2:0] $end
$var wire 1 ) mem_w $end
$var wire 1 * reset $end
$var wire 1 + wea $end
$var wire 1 , stall $end
$var wire 5 - rs2 [4:0] $end
$var wire 5 . rs1 [4:0] $end
$var wire 32 / inst_in [31:0] $end
$var wire 1 0 flush $end
$var wire 32 1 RD2 [31:0] $end
$var wire 32 2 RD1 [31:0] $end
$var wire 32 3 PC [31:0] $end
$var wire 5 4 MEM_WB_rd [4:0] $end
$var wire 32 5 MEM_WB_WD [31:0] $end
$var wire 1 6 MEM_WB_RegWrite $end
$var wire 32 7 MEM_WB_Forward_Data [31:0] $end
$var wire 32 8 MEM_NPC [31:0] $end
$var wire 32 9 IF_ID_inst [31:0] $end
$var wire 32 : IF_ID_PC [31:0] $end
$var wire 5 ; ID_EX_rd [4:0] $end
$var wire 32 < ID_EX_immout [31:0] $end
$var wire 3 = ID_EX_dm_ctrl [2:0] $end
$var wire 2 > ID_EX_WDSel [1:0] $end
$var wire 1 ? ID_EX_RegWrite $end
$var wire 32 @ ID_EX_PC [31:0] $end
$var wire 3 A ID_EX_NPCOp [2:0] $end
$var wire 1 B ID_EX_MemWrite $end
$var wire 32 C ID_EX_DataWrite [31:0] $end
$var wire 32 D ID_EX_ALU_B [31:0] $end
$var wire 32 E ID_EX_ALU_A [31:0] $end
$var wire 5 F ID_EX_ALUOp [4:0] $end
$var wire 4 G EX_MEM_wea [3:0] $end
$var wire 5 H EX_MEM_rd [4:0] $end
$var wire 32 I EX_MEM_immout [31:0] $end
$var wire 3 J EX_MEM_dm_ctrl [2:0] $end
$var wire 32 K EX_MEM_aluout [31:0] $end
$var wire 2 L EX_MEM_WDSel [1:0] $end
$var wire 32 M EX_MEM_WD [31:0] $end
$var wire 1 N EX_MEM_RegWrite $end
$var wire 32 O EX_MEM_PC [31:0] $end
$var wire 3 P EX_MEM_NPCOp [2:0] $end
$var wire 1 Q EX_MEM_MemWrite $end
$var wire 32 R EX_MEM_Forward_Data [31:0] $end
$var wire 32 S EX_MEM_DataWrite [31:0] $end
$var wire 32 T Data_in [31:0] $end
$scope module U_EX $end
$var wire 32 U EX_MEM_Forward_Data [31:0] $end
$var wire 1 ' clk $end
$var wire 1 V flush_w $end
$var wire 1 * rst $end
$var wire 5 W rd_in [4:0] $end
$var wire 32 X raw_Data_out [31:0] $end
$var wire 32 Y immout_in [31:0] $end
$var wire 3 Z dm_ctrl_in [2:0] $end
$var wire 32 [ aluout_w [31:0] $end
$var wire 1 \ Zero $end
$var wire 32 ] WD_w [31:0] $end
$var wire 2 ^ WDSel_in [1:0] $end
$var wire 1 ? RegWrite_in $end
$var wire 32 _ PC_in [31:0] $end
$var wire 3 ` NPCOp_in [2:0] $end
$var wire 1 B MemWrite_in $end
$var wire 32 a ALU_B [31:0] $end
$var wire 32 b ALU_A [31:0] $end
$var wire 5 c ALUOp [4:0] $end
$var reg 1 Q MemWrite $end
$var reg 3 d NPCOp [2:0] $end
$var reg 32 e PC [31:0] $end
$var reg 1 N RegWrite $end
$var reg 32 f WD [31:0] $end
$var reg 2 g WDSel [1:0] $end
$var reg 32 h aluout [31:0] $end
$var reg 32 i dm_Data_out [31:0] $end
$var reg 3 j dm_ctrl [2:0] $end
$var reg 1 0 flush $end
$var reg 32 k immout [31:0] $end
$var reg 5 l rd [4:0] $end
$var reg 4 m wea [3:0] $end
$var reg 4 n wea_tmp [3:0] $end
$scope module U_alu $end
$var wire 32 o PC [31:0] $end
$var wire 1 \ Zero $end
$var wire 32 p B [31:0] $end
$var wire 5 q ALUOp [4:0] $end
$var wire 32 r A [31:0] $end
$var reg 32 s C [31:0] $end
$upscope $end
$upscope $end
$scope module U_ID $end
$var wire 1 t DataHazardA1 $end
$var wire 1 u DataHazardA2 $end
$var wire 1 v DataHazardB1 $end
$var wire 1 w DataHazardB2 $end
$var wire 32 x EX_MEM_Forward_Data [31:0] $end
$var wire 1 N EX_MEM_RegWrite $end
$var wire 5 y EX_MEM_rd [4:0] $end
$var wire 1 z ForwardA1 $end
$var wire 1 { ForwardA2 $end
$var wire 1 | ForwardB1 $end
$var wire 1 } ForwardB2 $end
$var wire 2 ~ GPRSel [1:0] $end
$var wire 1 !" Rs1Legal $end
$var wire 1 "" Rs2Legal $end
$var wire 1 ' clk $end
$var wire 1 0 flush $end
$var wire 1 * rst $end
$var wire 1 , stall $end
$var wire 1 #" use_rs2 $end
$var wire 1 $" use_rs1 $end
$var wire 20 %" uimm [19:0] $end
$var wire 1 &" type_l $end
$var wire 12 '" simm [11:0] $end
$var wire 5 (" rs2 [4:0] $end
$var wire 5 )" rs1 [4:0] $end
$var wire 5 *" rd_w [4:0] $end
$var wire 20 +" jimm [19:0] $end
$var wire 32 ," inst_in [31:0] $end
$var wire 32 -" immout_w [31:0] $end
$var wire 5 ." iimm_shamt [4:0] $end
$var wire 12 /" iimm [11:0] $end
$var wire 3 0" dm_ctrl_w [2:0] $end
$var wire 12 1" bimm [11:0] $end
$var wire 2 2" WDSel_w [1:0] $end
$var wire 1 3" RegWrite_w $end
$var wire 32 4" RD2 [31:0] $end
$var wire 32 5" RD1 [31:0] $end
$var wire 32 6" PC_in [31:0] $end
$var wire 7 7" Op [6:0] $end
$var wire 32 8" NewRD2 [31:0] $end
$var wire 32 9" NewRD1 [31:0] $end
$var wire 3 :" NPCOp_w [2:0] $end
$var wire 1 ;" MemWrite_w $end
$var wire 32 <" MEM_WB_Forward_Data [31:0] $end
$var wire 5 =" ID_EX_rd [4:0] $end
$var wire 2 >" ID_EX_WDSel [1:0] $end
$var wire 1 ? ID_EX_RegWrite $end
$var wire 7 ?" Funct7 [6:0] $end
$var wire 3 @" Funct3 [2:0] $end
$var wire 6 A" EXTOp [5:0] $end
$var wire 1 B" ALUSrc $end
$var wire 5 C" ALUOp_w [4:0] $end
$var reg 5 D" ALUOp [4:0] $end
$var reg 32 E" ALU_A [31:0] $end
$var reg 32 F" ALU_B [31:0] $end
$var reg 32 G" DataWrite [31:0] $end
$var reg 1 B MemWrite $end
$var reg 3 H" NPCOp [2:0] $end
$var reg 32 I" PC [31:0] $end
$var reg 1 ? RegWrite $end
$var reg 2 J" WDSel [1:0] $end
$var reg 3 K" dm_ctrl [2:0] $end
$var reg 32 L" immout [31:0] $end
$var reg 5 M" rd [4:0] $end
$scope module U_EXT $end
$var wire 12 N" bimm [11:0] $end
$var wire 12 O" iimm [11:0] $end
$var wire 5 P" iimm_shamt [4:0] $end
$var wire 20 Q" jimm [19:0] $end
$var wire 12 R" simm [11:0] $end
$var wire 20 S" uimm [19:0] $end
$var wire 6 T" EXTOp [5:0] $end
$var reg 32 U" immout [31:0] $end
$upscope $end
$scope module U_ctrl $end
$var wire 1 B" ALUSrc $end
$var wire 3 V" Funct3 [2:0] $end
$var wire 7 W" Funct7 [6:0] $end
$var wire 2 X" GPRSel [1:0] $end
$var wire 1 ;" MemWrite $end
$var wire 7 Y" Op [6:0] $end
$var wire 1 3" RegWrite $end
$var wire 1 Z" i_add $end
$var wire 1 [" i_addi $end
$var wire 1 \" i_and $end
$var wire 1 ]" i_andi $end
$var wire 1 ^" i_auipc $end
$var wire 1 _" i_beq $end
$var wire 1 `" i_bge $end
$var wire 1 a" i_bgeu $end
$var wire 1 b" i_blt $end
$var wire 1 c" i_bltu $end
$var wire 1 d" i_bne $end
$var wire 1 e" i_jal $end
$var wire 1 f" i_jalr $end
$var wire 1 g" i_lb $end
$var wire 1 h" i_lbu $end
$var wire 1 i" i_lh $end
$var wire 1 j" i_lhu $end
$var wire 1 k" i_lui $end
$var wire 1 l" i_lw $end
$var wire 1 m" i_or $end
$var wire 1 n" i_ori $end
$var wire 1 o" i_sb $end
$var wire 1 p" i_sh $end
$var wire 1 q" i_sll $end
$var wire 1 r" i_slli $end
$var wire 1 s" i_slt $end
$var wire 1 t" i_slti $end
$var wire 1 u" i_sltiu $end
$var wire 1 v" i_sltu $end
$var wire 1 w" i_sra $end
$var wire 1 x" i_srai $end
$var wire 1 y" i_srl $end
$var wire 1 z" i_srli $end
$var wire 1 {" i_sub $end
$var wire 1 |" i_sw $end
$var wire 1 }" i_xor $end
$var wire 1 ~" i_xori $end
$var wire 1 !# itype_l $end
$var wire 1 "# itype_r $end
$var wire 1 ## rtype $end
$var wire 1 $# sbtype $end
$var wire 1 %# stype $end
$var wire 1 $" use_rs1 $end
$var wire 1 #" use_rs2 $end
$var wire 3 &# dm_ctrl [2:0] $end
$var wire 2 '# WDSel [1:0] $end
$var wire 3 (# NPCOp [2:0] $end
$var wire 6 )# EXTOp [5:0] $end
$var wire 5 *# ALUOp [4:0] $end
$upscope $end
$upscope $end
$scope module U_IF $end
$var wire 1 ' clk $end
$var wire 1 0 flush $end
$var wire 1 * rst $end
$var wire 1 , stall $end
$var wire 32 +# inst_in [31:0] $end
$var wire 32 ,# PC_in [31:0] $end
$var reg 32 -# PC_out [31:0] $end
$var reg 32 .# inst_out [31:0] $end
$upscope $end
$scope module U_MEM $end
$var wire 32 /# MEM_WB_Forward_Data [31:0] $end
$var wire 1 6 RegWrite $end
$var wire 1 N RegWrite_in $end
$var wire 32 0# WD [31:0] $end
$var wire 2 1# WDSel_in [1:0] $end
$var wire 32 2# WD_in [31:0] $end
$var wire 2 3# bias [1:0] $end
$var wire 1 ' clk $end
$var wire 3 4# dm_ctrl [2:0] $end
$var wire 5 5# rd [4:0] $end
$var wire 5 6# rd_in [4:0] $end
$var wire 1 * rst $end
$var wire 32 7# raw_Data_in [31:0] $end
$var reg 32 8# Data_in [31:0] $end
$var reg 32 9# WD_w [31:0] $end
$upscope $end
$scope module U_NPC $end
$var wire 32 :# IMM [31:0] $end
$var wire 3 ;# NPCOp [2:0] $end
$var wire 32 <# PC [31:0] $end
$var wire 32 =# aluout [31:0] $end
$var reg 32 ># NPC [31:0] $end
$upscope $end
$scope module U_PC $end
$var wire 32 ?# NPC [31:0] $end
$var wire 3 @# NPCOP [2:0] $end
$var wire 1 ' clk $end
$var wire 1 * rst $end
$var wire 1 , stall $end
$var wire 32 A# PCPLUS4 [31:0] $end
$var reg 32 B# PC [31:0] $end
$upscope $end
$scope module U_RF $end
$var wire 5 C# A1 [4:0] $end
$var wire 5 D# A2 [4:0] $end
$var wire 5 E# A3 [4:0] $end
$var wire 32 F# PC [31:0] $end
$var wire 32 G# RD1 [31:0] $end
$var wire 32 H# RD2 [31:0] $end
$var wire 1 6 RFWr $end
$var wire 32 I# WD [31:0] $end
$var wire 1 ' clk $end
$var wire 1 * rst $end
$var integer 32 J# i [31:0] $end
$upscope $end
$upscope $end
$upscope $end
$upscope $end
$enddefinitions $end
$comment Show the parameter values. $end
$dumpall
$end
#0
$dumpvars
b100000 J#
b0 I#
b0 H#
b0 G#
b0 F#
b0 E#
b0 D#
b0 C#
b0 B#
b100 A#
b0 @#
bx ?#
bx >#
b0 =#
b0 <#
b0 ;#
b0 :#
b0 9#
bx 8#
bx 7#
b0 6#
b0 5#
b0 4#
b0 3#
b0 2#
b0 1#
b0 0#
b0 /#
b0 .#
b0 -#
b0 ,#
b10000000000000011101111 +#
b0 *#
b0 )#
b0 (#
b0 '#
b0 &#
0%#
0$#
0##
0"#
0!#
0~"
0}"
0|"
0{"
0z"
0y"
0x"
0w"
0v"
0u"
0t"
0s"
0r"
0q"
0p"
0o"
0n"
0m"
0l"
0k"
0j"
0i"
0h"
0g"
0f"
0e"
0d"
0c"
0b"
0a"
0`"
0_"
0^"
0]"
0\"
0["
0Z"
b0 Y"
bz X"
b0 W"
b0 V"
b0 U"
b0 T"
b0 S"
b0 R"
b0 Q"
b0 P"
b0 O"
b0 N"
b0 M"
b0 L"
b0 K"
b0 J"
b0 I"
b0 H"
bx G"
b0 F"
b0 E"
b0 D"
b0 C"
0B"
b0 A"
b0 @"
b0 ?"
b0 >"
b0 ="
b0 <"
0;"
b0 :"
b0 9"
b0 8"
b0 7"
b0 6"
b0 5"
b0 4"
03"
b0 2"
b0 1"
b0 0"
b0 /"
b0 ."
b0 -"
b0 ,"
b0 +"
b0 *"
b0 )"
b0 ("
b0 '"
0&"
b0 %"
0$"
0#"
0""
0!"
bz ~
0}
0|
0{
0z
b0 y
b0 x
0w
0v
0u
0t
b0 s
b0 r
b0 q
b0 p
b0 o
b0 n
b0 m
b0 l
b0 k
b0 j
b0 i
b0 h
b0 g
b0 f
b0 e
b0 d
b0 c
b0 b
b0 a
b0 `
b0 _
b0 ^
b0 ]
1\
b0 [
b0 Z
b0 Y
bx X
b0 W
0V
b0 U
bx T
b0 S
b0 R
0Q
b0 P
b0 O
0N
b0 M
b0 L
b0 K
b0 J
b0 I
b0 H
b0 G
b0 F
b0 E
b0 D
bx C
0B
b0 A
b0 @
0?
b0 >
b0 =
b0 <
b0 ;
b0 :
b0 9
bx 8
b0 7
06
b0 5
b0 4
b0 3
b0 2
b0 1
00
b10000000000000011101111 /
b0 .
b0 -
0,
0+
1*
0)
b0 (
1'
b0 &
z%
z$
b0 #
z"
b0 !
$end
#5000
0*
#50000
0'
#100000
b100 -"
b100 U"
b0 C"
b0 *#
b0 0"
b0 &#
0$"
b1 A"
b1 T"
b1 )#
b10 :"
b10 (#
1e"
0g"
13"
1B"
b10 2"
b10 '#
0!#
b1 *"
b100 -
b100 ("
b100 D#
b1101111 7"
b1101111 Y"
b10 +"
b10 Q"
b10000000000 %"
b10000000000 S"
b10000000000 1"
b10000000000 N"
b1 '"
b1 R"
b100 /"
b100 O"
b100 ."
b100 P"
b10101010000010100010011 /
b10101010000010100010011 +#
bx #
bx S
bx i
b0 C
b0 X
b0 G"
b10000000000000011101111 9
b10000000000000011101111 ,"
b10000000000000011101111 .#
b1000 A#
b100 &
b100 3
b100 ,#
b100 B#
b100 F#
1'
#150000
0'
#200000
b101 -"
b101 U"
b11 C"
b11 *#
1["
0_"
1B"
1"#
1!"
0""
13"
1$"
0#"
0$#
b0 2"
b0 '#
b10000 A"
b10000 T"
b10000 )#
b0 :"
b0 (#
0e"
1V
b1000000001100111 /
b1000000001100111 +#
b1010 *"
b101 -
b101 ("
b101 D#
b1010 .
b1010 )"
b1010 C#
b10011 7"
b10011 Y"
b101000010000000010 +"
b101000010000000010 Q"
b10101010000 %"
b10101010000 S"
b101 1"
b101 N"
b1010 '"
b1010 R"
b101 /"
b101 O"
b101 ."
b101 P"
b100 R
b100 U
b100 x
b100 ]
b1100 A#
b1000 &
b1000 3
b1000 ,#
b1000 B#
b1000 F#
b10101010000010100010011 9
b10101010000010100010011 ,"
b10101010000010100010011 .#
b100 :
b100 6"
b100 -#
b10 >
b10 ^
b10 >"
b10 J"
b1 ;
b1 W
b1 ="
b1 M"
1?
b10 A
b10 `
b10 H"
b100 <
b100 Y
b100 L"
b100 D
b100 a
b100 p
b100 F"
b0 #
b0 S
b0 i
1'
#250000
0'
#300000
b100 9"
b0 -"
b0 U"
b100 5
b100 0#
b100 I#
b100 7
b100 <"
b100 /#
b100 9#
0["
b10 2"
b10 '#
b100 :"
b100 (#
1f"
0"#
b10000 A"
b10000 T"
b10000 )#
0^"
1|
1v
0V
b100 8
b100 >#
b100 ?#
b101 R
b101 U
b101 x
b101 ]
0\
b101 [
b101 s
b0 *"
b0 -
b0 ("
b0 D#
b1 .
b1 )"
b1 C#
b1100111 7"
b1100111 Y"
b100000000000000 +"
b100000000000000 Q"
b1000 %"
b1000 S"
b0 1"
b0 N"
b0 '"
b0 R"
b0 /"
b0 O"
b0 ."
b0 P"
bx /
bx +#
10
b100 M
b100 f
b100 2#
b10 L
b10 g
b10 1#
b1 4
b1 5#
b1 E#
b1 H
b1 l
b1 y
b1 6#
16
1N
b10 P
b10 d
b10 ;#
b10 @#
b100 I
b100 k
b100 :#
b0 >
b0 ^
b0 >"
b0 J"
b1010 ;
b1010 W
b1010 ="
b1010 M"
b0 A
b0 `
b0 H"
b101 <
b101 Y
b101 L"
b100 @
b100 _
b100 I"
b11 F
b11 c
b11 q
b11 D"
b101 D
b101 a
b101 p
b101 F"
b1000000001100111 9
b1000000001100111 ,"
b1000000001100111 .#
b1000 :
b1000 6"
b1000 -#
b10000 A#
b1100 &
b1100 3
b1100 ,#
b1100 B#
b1100 F#
1'
#350000
b100 2
b100 5"
b100 G#
0'
#400000
b0 5
b0 0#
b0 I#
b0 7
b0 <"
b0 /#
b0 9#
b0 A"
b0 T"
b0 )#
b0 C"
b0 *#
03"
0B"
0$"
b0 2"
b0 '#
b0 :"
b0 (#
0f"
b0 9"
0!"
b0 R
b0 U
b0 x
b0 ]
b10101010000010100010011 /
b10101010000010100010011 +#
b0 2
b0 5"
b0 G#
b0 .
b0 )"
b0 C#
b0 7"
b0 Y"
b0 +"
b0 Q"
b0 %"
b0 S"
1\
b0 [
b0 s
0|
0v
b1000 A#
b100 &
b100 3
b100 ,#
b100 B#
b100 F#
b0 9
b0 ,"
b0 .#
b0 :
b0 6"
b0 -#
b0 ;
b0 W
b0 ="
b0 M"
0?
b0 <
b0 Y
b0 L"
b0 @
b0 _
b0 I"
b0 F
b0 c
b0 q
b0 D"
b0 D
b0 a
b0 p
b0 F"
00
b0 M
b0 f
b0 2#
b0 L
b0 g
b0 1#
b0 4
b0 5#
b0 E#
b0 H
b0 l
b0 y
b0 6#
06
0N
b0 P
b0 d
b0 ;#
b0 @#
b0 I
b0 k
b0 :#
1'
#450000
0'
#500000
b101 -"
b101 U"
b11 C"
b11 *#
b10000 A"
b10000 T"
b10000 )#
1!"
1["
b0 0"
b0 &#
1$"
0g"
1"#
13"
1B"
b0 2"
b0 '#
0!#
b1010 *"
b101 -
b101 ("
b101 D#
b1010 .
b1010 )"
b1010 C#
b10011 7"
b10011 Y"
b101000010000000010 +"
b101000010000000010 Q"
b10101010000 %"
b10101010000 S"
b101 1"
b101 N"
b1010 '"
b1010 R"
b101 /"
b101 O"
b101 ."
b101 P"
b1000000001100111 /
b1000000001100111 +#
b10101010000010100010011 9
b10101010000010100010011 ,"
b10101010000010100010011 .#
b100 :
b100 6"
b100 -#
b1100 A#
b1000 &
b1000 3
b1000 ,#
b1000 B#
b1000 F#
1'
#550000
0'
#600000
b0 -"
b0 U"
0["
b10 2"
b10 '#
b100 :"
b100 (#
1f"
0"#
b10000 A"
b10000 T"
b10000 )#
0^"
b100 9"
0z
b101 R
b101 U
b101 x
b101 ]
bx /
bx +#
b0 *"
b0 -
b0 ("
b0 D#
b100 2
b100 5"
b100 G#
b1 .
b1 )"
b1 C#
b1100111 7"
b1100111 Y"
b100000000000000 +"
b100000000000000 Q"
b1000 %"
b1000 S"
b0 1"
b0 N"
b0 '"
b0 R"
b0 /"
b0 O"
b0 ."
b0 P"
0t
0\
b101 [
b101 s
b10000 A#
b1100 &
b1100 3
b1100 ,#
b1100 B#
b1100 F#
b1000000001100111 9
b1000000001100111 ,"
b1000000001100111 .#
b1000 :
b1000 6"
b1000 -#
b1010 ;
b1010 W
b1010 ="
b1010 M"
1?
b101 <
b101 Y
b101 L"
b100 @
b100 _
b100 I"
b11 F
b11 c
b11 q
b11 D"
b101 D
b101 a
b101 p
b101 F"
1'
#650000
0'
#700000
b0 -"
b0 U"
b101 5
b101 0#
b101 I#
b101 7
b101 <"
b101 /#
b101 9#
xZ"
x{"
xm"
x\"
x}"
xq"
xs"
xv"
xw"
xy"
xx"
xz"
xl"
xg"
xi"
bx 0"
bx &#
xh"
xj"
x["
xn"
x]"
x~"
xr"
xt"
xu"
x|"
xo"
xp"
x{
xu
x}
xw
x##
x!#
x"#
bx C"
bx *#
x;"
x%#
x_"
xb"
xc"
xd"
x`"
xa"
xk"
x^"
x3"
x""
xB"
x#"
x$"
x$#
bx A"
bx T"
bx )#
xe"
bx 2"
bx '#
x|
xv
bx 8"
xz
bx 9"
bx :"
bx (#
xf"
1V
x!"
xt
b1 3#
b1100 R
b1100 U
b1100 x
b1100 ]
b100 [
b100 s
bx *"
bx 1
bx 4"
bx H#
bx -
bx ("
bx D#
bx 2
bx 5"
bx G#
bx .
bx )"
bx C#
bx @"
bx V"
bx ?"
bx W"
bx 7"
bx Y"
bx +"
bx Q"
bx %"
bx S"
bx 1"
bx N"
bx '"
bx R"
bx /"
bx O"
bx ."
bx P"
b101 M
b101 f
b101 2#
b1010 4
b1010 5#
b1010 E#
b1010 H
b1010 l
b1010 y
b1010 6#
16
1N
b101 !
b101 K
b101 h
b101 =#
b101 I
b101 k
b101 :#
b100 O
b100 e
b100 o
b100 <#
b10 >
b10 ^
b10 >"
b10 J"
b0 ;
b0 W
b0 ="
b0 M"
b100 A
b100 `
b100 H"
b0 <
b0 Y
b0 L"
b1000 @
b1000 _
b1000 I"
b0 D
b0 a
b0 p
b0 F"
b100 E
b100 b
b100 r
b100 E"
bx 9
bx ,"
bx .#
b1100 :
b1100 6"
b1100 -#
b10100 A#
b10000 &
b10000 3
b10000 ,#
b10000 B#
b10000 F#
1'
#750000
0'
#800000
b1100 5
b1100 0#
b1100 I#
b1100 7
b1100 <"
b1100 /#
b1100 9#
xV
x&"
b0x0x00 R
b0x0x00 U
b0x0x00 x
b0x0x00 ]
b0 3#
b11000 A#
b10100 &
b10100 3
b10100 ,#
b10100 B#
b10100 F#
b10000 :
b10000 6"
b10000 -#
bx >
bx ^
bx >"
bx J"
bx ;
bx W
bx ="
bx M"
x?
bx C
bx X
bx G"
bx =
bx Z
bx K"
xB
bx A
bx `
bx H"
b1100 @
b1100 _
b1100 I"
bx F
bx c
bx q
bx D"
bx D
bx a
bx p
bx F"
bx E
bx b
bx r
bx E"
10
b1100 M
b1100 f
b1100 2#
b10 L
b10 g
b10 1#
b0 4
b0 5#
b0 E#
b0 H
b0 l
b0 y
b0 6#
b100 !
b100 K
b100 h
b100 =#
b100 P
b100 d
b100 ;#
b100 @#
b0 I
b0 k
b0 :#
b1000 O
b1000 e
b1000 o
b1000 <#
1'
#850000
0'
#900000
b0 5
b0 0#
b0 I#
b0 7
b0 <"
b0 /#
b0 9#
0Z"
0{"
03"
0B"
0$"
b0 C"
b0 *#
0}"
0g"
b0 0"
b0 &#
0h"
0["
0~"
0o"
0_"
0b"
0#"
0m"
0s"
0l"
0n"
0t"
0|"
0c"
0z"
0|
0v
0}
0w
0{
0z
0\"
0q"
0v"
0w"
0y"
0i"
0j"
0]"
0r"
0u"
0p"
0d"
0`"
0a"
0x"
0##
b0 2"
b0 '#
0!#
0"#
0f"
0;"
0%#
0$#
b0 A"
b0 T"
b0 )#
b0 :"
b0 (#
0e"
0k"
0^"
0,
0V
b0 9"
b0 8"
0""
0u
0!"
0t
0&"
b0 R
b0 U
b0 x
b0 ]
1\
b0 [
b0 s
b0 *"
b0 1
b0 4"
b0 H#
b0 -
b0 ("
b0 D#
b0 2
b0 5"
b0 G#
b0 .
b0 )"
b0 C#
b0 @"
b0 V"
b0 ?"
b0 W"
b0 7"
b0 Y"
b0 +"
b0 Q"
b0 %"
b0 S"
b0 1"
b0 N"
b0 '"
b0 R"
b0 /"
b0 O"
b0 ."
b0 P"
b10101010000010100010011 /
b10101010000010100010011 +#
00
b0 M
b0 f
b0 2#
b0 L
b0 g
b0 1#
06
0N
b0 !
b0 K
b0 h
b0 =#
b0 P
b0 d
b0 ;#
b0 @#
b0 O
b0 e
b0 o
b0 <#
b0 >
b0 ^
b0 >"
b0 J"
b0 ;
b0 W
b0 ="
b0 M"
0?
b0 =
b0 Z
b0 K"
0B
b0 A
b0 `
b0 H"
b0 @
b0 _
b0 I"
b0 F
b0 c
b0 q
b0 D"
b0 D
b0 a
b0 p
b0 F"
b0 E
b0 b
b0 r
b0 E"
b0 9
b0 ,"
b0 .#
b0 :
b0 6"
b0 -#
b1000 A#
b100 &
b100 3
b100 ,#
b100 B#
b100 F#
1'
#950000
0'
#1000000
b101 -"
b101 U"
b11 C"
b11 *#
b10000 A"
b10000 T"
b10000 )#
1!"
1["
b0 0"
b0 &#
1$"
0g"
1"#
13"
1B"
b0 2"
b0 '#
0!#
b101 9"
b1000000001100111 /
b1000000001100111 +#
b1010 *"
b101 -
b101 ("
b101 D#
b101 2
b101 5"
b101 G#
b1010 .
b1010 )"
b1010 C#
b10011 7"
b10011 Y"
b101000010000000010 +"
b101000010000000010 Q"
b10101010000 %"
b10101010000 S"
b101 1"
b101 N"
b1010 '"
b1010 R"
b101 /"
b101 O"
b101 ."
b101 P"
b1100 A#
b1000 &
b1000 3
b1000 ,#
b1000 B#
b1000 F#
b10101010000010100010011 9
b10101010000010100010011 ,"
b10101010000010100010011 .#
b100 :
b100 6"
b100 -#
b0 C
b0 X
b0 G"
bx #
bx S
bx i
1'
#1050000
0'
#1100000
b0 -"
b0 U"
0["
b10 2"
b10 '#
b100 :"
b100 (#
1f"
0"#
b10000 A"
b10000 T"
b10000 )#
0^"
b100 9"
b1010 R
b1010 U
b1010 x
b1010 ]
0\
b1010 [
b1010 s
b0 *"
b0 -
b0 ("
b0 D#
b100 2
b100 5"
b100 G#
b1 .
b1 )"
b1 C#
b1100111 7"
b1100111 Y"
b100000000000000 +"
b100000000000000 Q"
b1000 %"
b1000 S"
b0 1"
b0 N"
b0 '"
b0 R"
b0 /"
b0 O"
b0 ."
b0 P"
bx /
bx +#
b0 #
b0 S
b0 i
b1010 ;
b1010 W
b1010 ="
b1010 M"
1?
b101 <
b101 Y
b101 L"
b100 @
b100 _
b100 I"
b11 F
b11 c
b11 q
b11 D"
b101 D
b101 a
b101 p
b101 F"
b101 E
b101 b
b101 r
b101 E"
b1000000001100111 9
b1000000001100111 ,"
b1000000001100111 .#
b1000 :
b1000 6"
b1000 -#
b10000 A#
b1100 &
b1100 3
b1100 ,#
b1100 B#
b1100 F#
1'
#1150000
0'
#1200000
b0 -"
b0 U"
b1010 5
b1010 0#
b1010 I#
b1010 7
b1010 <"
b1010 /#
b1010 9#
xZ"
x{"
xm"
x\"
x}"
xq"
xs"
xv"
xw"
xy"
xx"
xz"
xl"
xg"
xi"
bx 0"
bx &#
xh"
xj"
x["
xn"
x]"
x~"
xr"
xt"
xu"
x|"
xo"
xp"
x{
xu
x}
xw
x##
x!#
x"#
bx C"
bx *#
x;"
x%#
x_"
xb"
xc"
xd"
x`"
xa"
xk"
x^"
x3"
x""
xB"
x#"
x$"
x$#
bx A"
bx T"
bx )#
xe"
bx 2"
bx '#
bx 8"
xz
bx 9"
bx :"
bx (#
xf"
x!"
xt
x|
xv
1V
bx *"
bx 1
bx 4"
bx H#
bx -
bx ("
bx D#
bx 2
bx 5"
bx G#
bx .
bx )"
bx C#
bx @"
bx V"
bx ?"
bx W"
bx 7"
bx Y"
bx +"
bx Q"
bx %"
bx S"
bx 1"
bx N"
bx '"
bx R"
bx /"
bx O"
bx ."
bx P"
b1100 R
b1100 U
b1100 x
b1100 ]
b10 3#
b100 [
b100 s
b10100 A#
b10000 &
b10000 3
b10000 ,#
b10000 B#
b10000 F#
bx 9
bx ,"
bx .#
b1100 :
b1100 6"
b1100 -#
b10 >
b10 ^
b10 >"
b10 J"
b0 ;
b0 W
b0 ="
b0 M"
b100 A
b100 `
b100 H"
b0 <
b0 Y
b0 L"
b1000 @
b1000 _
b1000 I"
b0 D
b0 a
b0 p
b0 F"
b100 E
b100 b
b100 r
b100 E"
b1010 M
b1010 f
b1010 2#
b1010 4
b1010 5#
b1010 E#
b1010 H
b1010 l
b1010 y
b1010 6#
16
1N
b1010 !
b1010 K
b1010 h
b1010 =#
b101 I
b101 k
b101 :#
b100 O
b100 e
b100 o
b100 <#
1'
#1250000
0'
#1300000
b1100 5
b1100 0#
b1100 I#
b1100 7
b1100 <"
b1100 /#
b1100 9#
xV
b0 3#
x&"
b0x0x00 R
b0x0x00 U
b0x0x00 x
b0x0x00 ]
10
b1100 M
b1100 f
b1100 2#
b10 L
b10 g
b10 1#
b0 4
b0 5#
b0 E#
b0 H
b0 l
b0 y
b0 6#
b100 !
b100 K
b100 h
b100 =#
b100 P
b100 d
b100 ;#
b100 @#
b0 I
b0 k
b0 :#
b1000 O
b1000 e
b1000 o
b1000 <#
bx >
bx ^
bx >"
bx J"
bx ;
bx W
bx ="
bx M"
x?
bx C
bx X
bx G"
bx =
bx Z
bx K"
xB
bx A
bx `
bx H"
b1100 @
b1100 _
b1100 I"
bx F
bx c
bx q
bx D"
bx D
bx a
bx p
bx F"
bx E
bx b
bx r
bx E"
b10000 :
b10000 6"
b10000 -#
b11000 A#
b10100 &
b10100 3
b10100 ,#
b10100 B#
b10100 F#
1'
#1350000
0'
